…
### Construct cell-specific statistics from KOSTRA-DWD-2020 grid

Now that we have messed a little with the grid cell identifiers, let’s
get a sneak peek into the dataset itself based on the “INDEX_RC”
specified.

``` r
# Build a tibble containing statistical precipitation depths as a function of 
# duration and return periods for the grid cell specified.
stats <- get_stats("117111")

stats
#> # A tibble: 22 × 12
#>    D_min D_hour D_day HN_001A HN_002A HN_003A HN_005A HN_010A HN_020A HN_030A
#>    <dbl>  <dbl> <dbl>   <dbl>   <dbl>   <dbl>   <dbl>   <dbl>   <dbl>   <dbl>
#>  1     5   NA      NA     7       8.8    10      11.4    13.6    15.8    17.2
#>  2    10   NA      NA     8.9    11.3    12.7    14.6    17.3    20.1    21.9
#>  3    15   NA      NA    10.1    12.8    14.4    16.5    19.6    22.8    24.9
#>  4    20   NA      NA    11      13.9    15.7    18      21.4    24.8    27.1
#>  5    30   NA      NA    12.4    15.6    17.6    20.2    23.9    27.8    30.4
#>  6    45   NA      NA    13.8    17.4    19.6    22.5    26.7    31      33.9
#>  7    60    1      NA    14.9    18.8    21.1    24.3    28.8    33.5    36.6
#>  8    90    1.5    NA    16.5    20.8    23.5    27      32      37.2    40.6
#>  9   120    2      NA    17.8    22.4    25.3    29      34.5    40.1    43.7
#> 10   180    3      NA    19.7    24.9    28      32.2    38.2    44.4    48.4
#> # ℹ 12 more rows
#> # ℹ 2 more variables: HN_050A <dbl>, HN_100A <dbl>
```
…
Uncertainties are caused on the one hand by the statistical procedures
themselves, but on the other hand also by the regionalisation procedure
and by erroneous or missing observations. The uncertainties vary
regionally and depend on the duration level and return period. For
example, the rarer an event occurs statistically, the greater the
uncertainties.

Specific uncertainty data is available for each grid cell and for each
combination of duration level D and return period Tn. Please note that
uncertainty ranges are given in ± %.

``` r
# Inspect raw uncertainties used above.
get_uncertainties("117111")
#> # A tibble: 22 × 12
#>    D_min D_hour D_day UC_001A UC_002A UC_003A UC_005A UC_010A UC_020A UC_030A
#>    <dbl>  <dbl> <dbl>   <dbl>   <dbl>   <dbl>   <dbl>   <dbl>   <dbl>   <dbl>
#>  1     5   NA      NA      10      11      12      13      14      15      15
#>  2    10   NA      NA      13      15      16      17      18      19      20
#>  3    15   NA      NA      14      17      18      19      20      21      21
#>  4    20   NA      NA      15      17      18      20      21      22      22
#>  5    30   NA      NA      16      18      19      20      22      23      23
#>  6    45   NA      NA      16      18      19      20      22      23      23
#>  7    60    1      NA      15      18      19      20      21      22      23
#>  8    90    1.5    NA      15      17      18      19      21      22      22
#>  9   120    2      NA      14      17      18      19      20      21      22
#> 10   180    3      NA      13      16      17      18      19      20      21
#> # ℹ 12 more rows
#> # ℹ 2 more variables: UC_050A <dbl>, UC_100A <dbl>
```
…
